…
    df_diario
  })

names(EstacoesList) <- EstacoesProcess$city_biome

EstacoesList[[1]]
```

    ## # A tibble: 366 x 4
    ##    Date       Precipitation Temperature city                        
    ##    <date>             <dbl>       <dbl> <chr>                       
    ##  1 2018-12-31           0          26.6 Manaus - Amazonas (Amazônia)
    ##  2 2019-01-01          15          27.6 Manaus - Amazonas (Amazônia)
    ##  3 2019-01-02           1.8        26.8 Manaus - Amazonas (Amazônia)
    ##  4 2019-01-03           0.8        27.5 Manaus - Amazonas (Amazônia)
    ##  5 2019-01-04           0.2        28.1 Manaus - Amazonas (Amazônia)
    ##  6 2019-01-05          12.6        27.2 Manaus - Amazonas (Amazônia)
    ##  7 2019-01-06           1.6        26.4 Manaus - Amazonas (Amazônia)
    ##  8 2019-01-07           2.2        25.2 Manaus - Amazonas (Amazônia)
    ##  9 2019-01-08           0.6        26.2 Manaus - Amazonas (Amazônia)
    ## 10 2019-01-09           0.4        26.3 Manaus - Amazonas (Amazônia)
    ## # i 356 more rows
…
dataFrance
```

    ## # A tibble: 87,550 x 2
    ##    Date                Temperature
    ##    <dttm>                    <dbl>
    ##  1 2018-01-01 00:00:00        6.10
    ##  2 2018-01-01 00:06:00        6.10
    ##  3 2018-01-01 00:12:00        6.20
    ##  4 2018-01-01 00:18:00        6.20
    ##  5 2018-01-01 00:24:00        6.40
    ##  6 2018-01-01 00:30:00        6.30
    ##  7 2018-01-01 00:36:00        6.20
    ##  8 2018-01-01 00:42:00        6.20
    ##  9 2018-01-01 00:48:00        6.40
    ## 10 2018-01-01 00:54:00        6.70
    ## # i 87,540 more rows
…
    ## Warning: Expecting numeric in E8177 / R8177C5: got '1,802.61'

    ## Warning: Expecting numeric in E16824 / R16824C5: got '1,802.61'

``` r
dataPortugal <-
  dataPortugal |>
  select(Data, `Temperatura (Cº)`) |>
  mutate(Data = strptime(Data, format = "%Y-%m-%d %H:%M:%S")) |>
  rename(Date = "Data", Temperature = "Temperatura (Cº)")

dataPortugal
```

    ## # A tibble: 17,305 x 2
    ##    Date                Temperature
    ##    <dttm>                    <dbl>
    ##  1 2023-01-01 00:00:00        17.5
    ##  2 2023-01-01 00:30:00        17.6
    ##  3 2023-01-01 01:00:00        17.4
    ##  4 2023-01-01 01:30:00        17.3
    ##  5 2023-01-01 02:00:00        17.1
    ##  6 2023-01-01 02:30:00        16.9
    ##  7 2023-01-01 03:00:00        17.3
    ##  8 2023-01-01 03:30:00        17.3
    ##  9 2023-01-01 04:00:00        17.4
    ## 10 2023-01-01 04:30:00        17.4
    ## # i 17,295 more rows
…
“We converted the date format for the dataset from France so that the
dates are uniquely differentiated by hours.”

``` r
dataFrance <-
  dataFrance |>
  mutate(
    Date = as.POSIXct(format(Date), format = "%Y-%m-%d %H")
  )

dataFrance
```

    ## # A tibble: 87,550 x 2
    ##    Date                Temperature
    ##    <dttm>                    <dbl>
    ##  1 2018-01-01 00:00:00        6.10
    ##  2 2018-01-01 00:00:00        6.10
    ##  3 2018-01-01 00:00:00        6.20
    ##  4 2018-01-01 00:00:00        6.20
    ##  5 2018-01-01 00:00:00        6.40
    ##  6 2018-01-01 00:00:00        6.30
    ##  7 2018-01-01 00:00:00        6.20
    ##  8 2018-01-01 00:00:00        6.20
    ##  9 2018-01-01 00:00:00        6.40
    ## 10 2018-01-01 00:00:00        6.70
    ## # i 87,540 more rows
…
